%YAML 1.1
%TAG !u! tag:unity3d.com,2011:
--- !u!1045 &1
EditorBuildSettings:
  m_ObjectHideFlags: 0
  serializedVersion: 2
  m_Scenes:
  - enabled: 1
    path: Assets/Scenes/Menu.unity
    guid: 6dc99e02ac869554aa31ea3427a2fbc3
  - enabled: 1
    path: Assets/Scenes/Level01_Intro.unity
    guid: f5ca993b55ea8d6418eab1cbe6deea3c
  - enabled: 1
    path: Assets/Scenes/Level02.unity
    guid: 20cd44cad96a2c24e92717cd90a72747
  - enabled: 1
    path: Assets/Scenes/Level04.unity
    guid: 8a32cd20c9c7c914484d29c38c25fbb1
  - enabled: 1
    path: Assets/Scenes/Level05.unity
    guid: 3f92148256a468246b6ad86c1fc6c384
  - enabled: 1
    path: Assets/Scenes/Level03.unity
    guid: 6a0c5f703138c64468c344c36c808924
  m_configObjects: {}
